Project 1: Wrangling, Exploration, Visualization
…
# an example of long and wide pivot since the data was pretty
# tidy
long_data <- player_data %>% pivot_longer(cols = c("2P%", "3P%", 
    "FT%"), names_to = "Shooting Splits", values_to = "Percentages")
long_data %>% pivot_wider(names_from = "Shooting Splits", values_from = "Percentages") %>% 
    relocate("2P%", .after = "2PA") %>% relocate("3P%", .after = "3PA") %>% 
    relocate("FT%", .after = "FTA")

## # A tibble: 403 x 30
##       Rk Player Pos     Age Tm        G    GS    MP    FG   FGA `FG%`  `3P`
##    <dbl> <chr>  <chr> <dbl> <chr> <dbl> <dbl> <dbl> <dbl> <dbl> <dbl> <dbl>
##  1     1 Preci PF       22 TOR       4     4  26.3   4.3  10.5 0.405   0.5
##  2     2 Steve C        28 MEM       3     3  30.7   5.7   9   0.63    0  
##  3     3 Bam A C        24 MIA       3     3  30.7   6.3  12.3 0.514   0  
##  4     4 LaMar C        36 BRK       3     0  20     4.7   7   0.667   0  
##  5     5 Nicke SG       23 NOP       4     4  33     6.3  16.3 0.385   2.8
##  6     6 Grays SG       26 MIL       4     4  28.5   4.3  10.8 0.395   2.8
##  7     7 Jarre C        23 CLE       4     4  31.3   7.8   9.3 0.838   0  
##  8     8 Kyle  PF       28 MEM       3     0  19.3   1.7   8   0.208   0.7
##  9     9 Giann PF       27 MIL       4     4  30     8.3  17.3 0.478   0.8
## 10    10 Thana SF       29 MIL       4     1  17.8   2.5   3.8 0.667   0  
## #  with 393 more rows, and 18 more variables: `3PA` <dbl>, `3P%` <dbl>,
## #   `2P` <dbl>, `2PA` <dbl>, `2P%` <dbl>, `eFG%` <dbl>, FT <dbl>, FTA <dbl>,
## #   `FT%` <dbl>, ORB <dbl>, DRB <dbl>, TRB <dbl>, AST <dbl>, STL <dbl>,
## #   BLK <dbl>, TOV <dbl>, PF <dbl>, PTS <dbl>
…
